{
    "extensionDescription": {
        "message": "Te protege contra o rastreamento usando CDNs (Redes de Fornecimento de Conteúdo), redirecionando para recursos locais.",
        "description": "Protects you against tracking through CDNs (Content Delivery Networks) by redirecting to local resources."
    },
    "amountInjectedDescription": {
        "message": "Total de injeções locais de recursos da Rede de Fornecimento de Conteúdo desde a instalação.",
        "description": "Amount injected description."
    },
    "optionsTitle": {
        "message": "Opções",
        "description": "Options title"
    },
    "showIconBadgeTitle": {
        "message": "Exibir total de injeções no ícone",
        "description": "Show icon badge title"
    },
    "showIconBadgeDescription": {
        "message": "Mostra o número de recursos injetados no ícone da extensão.",
        "description": "Show icon badge description."
    },
    "blockMissingTitle": {
        "message": "Bloquear solicitações de recursos ausentes",
        "description": "Block requests for missing resources title"
    },
    "blockMissingDescription": {
        "message": "Cancela solicitações interceptadas se o recurso necessário não está disponível localmente.",
        "description": "Block requests for missing resources description."
    },
    "disablePrefetchTitle": {
        "message": "Desabilitar pré-carregamento de links",
        "description": "Disable prefetch title"
    },
    "disablePrefetchDescription": {
        "message": "Impede que requisições não permitidas vazem para as redes de distribuição de conteúdo.",
        "description": "Disable prefetch description."
    },
    "stripMetadataTitle": {
        "message": "Remover metadados de requisições permitidas",
        "description": "Strip metadata title"
    },
    "stripMetadataDescription": {
        "message": "Apaga dados sensíveis de requisições à CDNs permitidas visando melhorar a privacidade.",
        "description": "Strip metadata description."
    },
    "allowlistedDomainsTitle": {
        "message": "Desativar o LocalCDN para esse domínios:",
        "description": "Deactivate LocalCDN for these domains:"
    },
    "allowlistedDomainsDescription": {
        "message": "Digite os domínios para desabilitar o LocalCDN neles. Uma entrada por linha.",
        "description": "Enter domains to disable LocalCDN there. One entry per line."
    },
    "advancedLabel": {
        "message": "Avançado",
        "description": "Advanced label"
    },
    "generateRuleSetTitle": {
        "message": "Gere conjuntos de regras para seu bloqueador de anúncios",
        "description": "Generate rule sets for your adblocker"
    },
    "generateRuleSetDescription": {
        "message": "No caso de você estar usando um bloqueador de anúncios você pode gerar as regras aqui. Você tem que adicionar essas regras manualmente no bloqueador de anúncios.",
        "description": "In case you are using an adblocker you can generate the rules here. You have to add these rules manually in your adblocker."
    },
    "lastUpdate": {
        "message": "Última atualização:",
        "description": "Last update:"
    },
    "copyRuleSet": {
        "message": "Copiar",
        "description": "Text of button to copy ruleset"
    },
    "loggingTitle": {
        "message": "Habilitar registro",
        "description": "Enable logging"
    },
    "loggingDescription": {
        "message": "Você poder abrir o registro com o ícone no menu. O mesmo será excluído ao fechar o navegador ou quando desabilitar o registro.",
        "description": "You can open the log with the icon in the menu. The log will be deleted when you close the browser or disable logging."
    },
    "featureBreaksWebsitesDescription": {
        "message": "Esse recurso quebra sites. Não deixe habilitado, a não ser que você esteja preparado para permitir manualmente os sites afetados.",
        "description": "This feature breaks websites. Do not leave it enabled, unless you are prepared to manually add affected domains to the allow list."
    },
    "featureBreaksWebsitesButton": {
        "message": "Desabilitar",
        "description": "Disable"
    },
    "labelManipulateDOM": {
        "message": "Filtrar código HTML",
        "description": "Filter HTML source code"
    },
    "labelDonate": {
        "message": "Doar",
        "description": "Donate"
    },
    "negateHtmlFilterListTitle": {
        "message": "Inverter filtro HTML",
        "description": "Invert HTML filter"
    },
    "negateHtmlFilterListDescription": {
        "message": "Habilite essa opção para sempre aplicar o filtro HTML. Os domínios na lista serão ignorados. Se essa opção está desabilitada, o filtro HTML é apenas aplicados a domínios na lista.",
        "description": "Enable this option to always apply the HTML filter. The domains in the list will be ignored then. If this option is disabled, the HTML filter is only applied to domains in the list."
    },
    "negateHtmlFilterListWarning": {
        "message": "Essa função quebra sites. Por favor, olhe a informação na página da Wiki.",
        "description": "This function can break websites. Please note the information on the Wiki page."
    },
    "htmlFilterDomainsTitleExclude": {
        "message": "Não aplique o filtro HTML para esses domínios:",
        "description": "Do not apply HTML filter to these domains:"
    },
    "htmlFilterDomainsDescription": {
        "message": "Digite os domínios que serão usados ou ignorados pelo filtro HTML. Uma entrada por linha.",
        "description": "Enter the domains to be handled or ignored by the HTML filter. One entry per line."
    },
    "htmlFilterDomainsTitleInclude": {
        "message": "Aplique o filtro HTML para esses domínios:",
        "description": "Apply HTML filter for these domains:"
    },
    "blockGoogleFontsTitle": {
        "message": "Bloquear Google Fonts",
        "description": "Block Google Fonts"
    },
    "blockGoogleFontsDescription": {
        "message": "Se pedidos para recursos faltantes são permitidos, conexões para \"fonts.googleapis.com\" não são bloqueadas. Habilite essa opção para bloquear esses pedidos.",
        "description": "If requests for missing resources are allowed, connections to \"fonts.googleapis.com\" are not blocked. Enable this option to block these requests."
    },
    "chooseIconStyle": {
        "message": "Escolha um ícone para essa extensão",
        "description": "Choose an icon for this extension"
    },
    "internalStatisticsTitle": {
        "message": "Estatísticas internas",
        "description": "Internal statistics"
    },
    "internalStatisticsDescription": {
        "message": "Esta função está atualmente em uma fase experimental. Não há transmissão de dados. É tudo local em seu dispositivo.",
        "description": "No data transmission. It’s all local on your device."
    },
    "headerStatistics": {
        "message": "Estatísticas",
        "description": "Statistics. The header of a statistics page."
    },
    "labelToday": {
        "message": "Hoje",
        "description": "Statistics view for today."
    },
    "labelPastWeek": {
        "message": "Semana passada",
        "description": "Statistics view for past week."
    },
    "labelPastMonth": {
        "message": "Último mês",
        "description": "Statistics view for past month."
    },
    "labelPastYear": {
        "message": "Ano passado",
        "description": "Statistics view for past year."
    },
    "labelDelete": {
        "message": "Excluir",
        "description": "Button to delete all statistics data."
    },
    "labelAvg": {
        "message": "Média (Substituições por dia)",
        "description": "Followed by a number of average injections per day within a specific period."
    },
    "labelInjectedFrameworks": {
        "message": "Estruturas substituídas",
        "description": "Followed by a number of injections within a specific period."
    },
    "dialogConfirmDeleteStatistics": {
        "message": "Você tem certeza de que quer apagar todas as estatísticas?",
        "description": "Are you sure you want to delete all the statistics?"
    },
    "labelDomainsAllowlistGoogleFonts": {
        "message": "Estes domínios tem permissão para carregar Google Fonts. Uma entrada por linha.",
        "description": "These domains are allowed to load Google Fonts. One entry per line."
    },
    "btnGeneral": {
        "message": "Básico",
        "description": "Basic"
    },
    "btnAdvanced": {
        "message": "Avançado",
        "description": "Advanced"
    },
    "btnOther": {
        "message": "Outro",
        "description": "Other"
    },
    "btnInfo": {
        "message": "Info",
        "description": "Info"
    },
    "headerStorageType": {
        "message": "Tipo de Armazenamento",
        "description": "Storage type"
    },
    "labelStorageTypeLocal": {
        "message": "Local",
        "description": "Local"
    },
    "labelStorageTypeSync": {
        "message": "Sincronizar",
        "description": "Sync"
    },
    "headerImportExport": {
        "message": "Importar/Exportar",
        "description": "Import/Export"
    },
    "labelExportData": {
        "message": "Salvar para arquivo",
        "description": "Back up to file"
    },
    "labelImportData": {
        "message": "Restaurar de arquivo",
        "description": "Restore from file"
    },
    "dialogImportSuccessful": {
        "message": "Importação Concluida",
        "description": "Import successful"
    },
    "dialogImportFailed": {
        "message": "Falha no Importação",
        "description": "Import failed"
    },
    "updateNotificationTitle": {
        "message": "Notificar depois de atualizar",
        "description": "Notification after an update"
    },
    "updateNotificationNever": {
        "message": "Nunca (Atualizações Silenciosas)",
        "description": "Never (Silent Updates)"
    },
    "updateNotificationOnlyRules": {
        "message": "Apenas se novos CDNS e regras",
        "description": "Only if new CDNs and rules"
    },
    "updateNotificationAlways": {
        "message": "Sempre",
        "description": "Always"
    },
    "websiteBroken": {
        "message": "Site quebrado?",
        "description": "Website broken?"
    },
    "hideDonationButton": {
        "message": "Ocultar botão de doação",
        "description": "Hide donation button"
    },
    "betaLabel": {
        "message": "Beta",
        "description": "beta"
    },
    "changeBadgeColorMissingResourcesTitle": {
        "message": "Indica os recursos ausentes no ícone",
        "description": "Indicate missing resources on the icon"
    },
    "changeBadgeColorMissingResourcesDescription": {
        "message": "Altera a cor do contador se houver recursos ausentes.",
        "description": "Change the badge color if resources are missing."
    }
}
