{
    "extensionDescription": {
        "message": "Yerel kaynaklara yönlendirerek sizi CDN'ler (Content Delivery Networks - İçerik Dağıtım Ağları) üzerinden izlenmeye karşı korur.",
        "description": "Protects you against tracking through CDNs (Content Delivery Networks) by redirecting to local resources."
    },
    "amountInjectedDescription": {
        "message": "Kurulumdan bu yana yerel İçerik Dağıtım Ağı kaynak enjeksiyonlarının miktarı.",
        "description": "Amount injected description."
    },
    "optionsTitle": {
        "message": "Seçenekler",
        "description": "Options title"
    },
    "showIconBadgeTitle": {
        "message": "Simgede enjeksiyon sayaçlarını göster",
        "description": "Show icon badge title"
    },
    "showIconBadgeDescription": {
        "message": "Enjekte edilen kaynakların sayısını uzantı simgesinde gösterin.",
        "description": "Show icon badge description."
    },
    "blockMissingTitle": {
        "message": "Eksik kaynaklar için gelen istekleri engelle",
        "description": "Block requests for missing resources title"
    },
    "blockMissingDescription": {
        "message": "İstenilen kaynak yerel olarak mevcut değilse, yakalanan isteği iptal et.",
        "description": "Block requests for missing resources description."
    },
    "disablePrefetchTitle": {
        "message": "Bağlantı önalımını devre dışı bırak",
        "description": "Disable prefetch title"
    },
    "disablePrefetchDescription": {
        "message": "İzin verilmeyen isteklerin dağıtım ağlarına sızmasını engelleyin.",
        "description": "Disable prefetch description."
    },
    "stripMetadataTitle": {
        "message": "Meta verilerini izin verilen isteklerden ayır",
        "description": "Strip metadata title"
    },
    "stripMetadataDescription": {
        "message": "İleri düzey gizlilik için, izin verilen CDN isteklerinden hassas verileri sil.",
        "description": "Strip metadata description."
    },
    "allowlistedDomainsTitle": {
        "message": "Bu etki alanları için LocalCDN'yi devre dışı bırak:",
        "description": "Deactivate LocalCDN for these domains:"
    },
    "allowlistedDomainsDescription": {
        "message": "Her satırda bir girdi olacak şekilde, LocalCDN'nin devre dışı bırakılacağı etki alanlarını girin.",
        "description": "Enter domains to disable LocalCDN there. One entry per line."
    },
    "advancedLabel": {
        "message": "Gelişmiş",
        "description": "Advanced label"
    },
    "generateRuleSetTitle": {
        "message": "Reklam engelleyiciniz için kural kümeleri oluşturun",
        "description": "Generate rule sets for your adblocker"
    },
    "generateRuleSetDescription": {
        "message": "Bir reklam engelleyici kullanıyorsanız kuralları buradan oluşturabilirsiniz. Bu kuralları reklam engelleyicinize elle eklemeniz gerekir.",
        "description": "In case you are using an adblocker you can generate the rules here. You have to add these rules manually in your adblocker."
    },
    "lastUpdate": {
        "message": "Son güncelleme:",
        "description": "Last update:"
    },
    "copyRuleSet": {
        "message": "Kopyala",
        "description": "Text of button to copy ruleset"
    },
    "loggingTitle": {
        "message": "Günlük kaydını etkinleştir",
        "description": "Enable logging"
    },
    "loggingDescription": {
        "message": "Günlüğü menüdeki simgesi ile açabilirsiniz. Tarayıcıyı kapattığınızda veya günlük kaydını devre dışı bıraktığınızda günlük silinecektir.",
        "description": "You can open the log with the icon in the menu. The log will be deleted when you close the browser or disable logging."
    },
    "featureBreaksWebsitesDescription": {
        "message": "Bu özellik web sitelerini bozar. Etkilenen alan adlarını elle izin listesine eklemeye hazır değilseniz, etkinleştirilmiş olarak bırakmayın.",
        "description": "This feature breaks websites. Do not leave it enabled, unless you are prepared to manually add affected domains to the allow list."
    },
    "featureBreaksWebsitesButton": {
        "message": "Devre dışı bırak",
        "description": "Disable"
    },
    "labelManipulateDOM": {
        "message": "HTML kaynak kodunu filtrele",
        "description": "Filter HTML source code"
    },
    "labelDonate": {
        "message": "Bağış yap",
        "description": "Donate"
    },
    "negateHtmlFilterListTitle": {
        "message": "HTML filtresini tersine çevir",
        "description": "Invert HTML filter"
    },
    "negateHtmlFilterListDescription": {
        "message": "HTML filtresini her zaman uygulamak için bu seçeneği etkinleştirin. Listedeki etki alanları göz ardı edilecektir. Bu seçenek devre dışı bırakılırsa, HTML filtresi sadece listedeki etki alanlarına uygulanır.",
        "description": "Enable this option to always apply the HTML filter. The domains in the list will be ignored then. If this option is disabled, the HTML filter is only applied to domains in the list."
    },
    "negateHtmlFilterListWarning": {
        "message": "Bu işlev web sitelerini bozabilir. Lütfen Wiki sayfasındaki bilgilere göz atın.",
        "description": "This function can break websites. Please note the information on the Wiki page."
    },
    "htmlFilterDomainsTitleExclude": {
        "message": "Bu etki alanlarına HTML filtresi uygulama:",
        "description": "Do not apply HTML filter to these domains:"
    },
    "htmlFilterDomainsDescription": {
        "message": "Her satırda bir girdi olacak şekilde, HTML filtresi tarafından işlenecek veya yok sayılacak etki alanlarını girin.",
        "description": "Enter the domains to be handled or ignored by the HTML filter. One entry per line."
    },
    "htmlFilterDomainsTitleInclude": {
        "message": "Bu etki alanları için HTML filtresini uygula:",
        "description": "Apply HTML filter for these domains:"
    },
    "blockGoogleFontsTitle": {
        "message": "Google Yazı Tiplerini Engelle",
        "description": "Block Google Fonts"
    },
    "blockGoogleFontsDescription": {
        "message": "Eksik kaynaklar için isteklere izin verilirse, \"fonts.googleapis.com\" adresiyle yapılan bağlantılar engellenmez. Bu istekleri engellemek için bu seçeneği etkinleştirin.",
        "description": "If requests for missing resources are allowed, connections to \"fonts.googleapis.com\" are not blocked. Enable this option to block these requests."
    },
    "chooseIconStyle": {
        "message": "Bu uzantı için bir simge seç",
        "description": "Choose an icon for this extension"
    },
    "internalStatisticsTitle": {
        "message": "Dahili istatistikler",
        "description": "Internal statistics"
    },
    "internalStatisticsDescription": {
        "message": "Bu işlev şu anda deneysel bir aşamadadır. Veri aktarımı yok. Hepsi aygıtınızda yereldir.",
        "description": "No data transmission. It’s all local on your device."
    },
    "headerStatistics": {
        "message": "İstatistikler",
        "description": "Statistics. The header of a statistics page."
    },
    "labelToday": {
        "message": "Bugün",
        "description": "Statistics view for today."
    },
    "labelPastWeek": {
        "message": "Geçen hafta",
        "description": "Statistics view for past week."
    },
    "labelPastMonth": {
        "message": "Geçen ay",
        "description": "Statistics view for past month."
    },
    "labelPastYear": {
        "message": "Geçen yıl",
        "description": "Statistics view for past year."
    },
    "labelDelete": {
        "message": "Sil",
        "description": "Button to delete all statistics data."
    },
    "labelAvg": {
        "message": "Ortalama (Günlük değiştirme sayısı)",
        "description": "Followed by a number of average injections per day within a specific period."
    },
    "labelInjectedFrameworks": {
        "message": "Değiştirilen çerçeveler",
        "description": "Followed by a number of injections within a specific period."
    },
    "dialogConfirmDeleteStatistics": {
        "message": "Tüm istatistikleri silmek istediğinizden emin misiniz?",
        "description": "Are you sure you want to delete all the statistics?"
    },
    "labelDomainsAllowlistGoogleFonts": {
        "message": "Her satırda bir girdi olacak şekilde, bu etki alanlarının Google Yazı Tiplerini yüklemesine izin verilir.",
        "description": "These domains are allowed to load Google Fonts. One entry per line."
    },
    "btnGeneral": {
        "message": "Temel",
        "description": "Basic"
    },
    "btnAdvanced": {
        "message": "Gelişmiş",
        "description": "Advanced"
    },
    "btnOther": {
        "message": "Diğer",
        "description": "Other"
    },
    "btnInfo": {
        "message": "Bilgi",
        "description": "Info"
    },
    "headerStorageType": {
        "message": "Depolama türü",
        "description": "Storage type"
    },
    "labelStorageTypeLocal": {
        "message": "Yerel",
        "description": "Local"
    },
    "labelStorageTypeSync": {
        "message": "Eşzamanlama",
        "description": "Sync"
    },
    "headerImportExport": {
        "message": "İçe/Dışa aktar",
        "description": "Import/Export"
    },
    "labelExportData": {
        "message": "Dosyaya yedekle",
        "description": "Back up to file"
    },
    "labelImportData": {
        "message": "Dosyadan geri yükle",
        "description": "Restore from file"
    },
    "dialogImportSuccessful": {
        "message": "İçe aktarma başarılı",
        "description": "Import successful"
    },
    "dialogImportFailed": {
        "message": "İçe aktarma başarısız",
        "description": "Import failed"
    },
    "updateNotificationTitle": {
        "message": "Güncellemeden sonra bildirim",
        "description": "Notification after an update"
    },
    "updateNotificationNever": {
        "message": "Asla (Sessiz Güncellemeler)",
        "description": "Never (Silent Updates)"
    },
    "updateNotificationOnlyRules": {
        "message": "Yalnızca yeni CDN'ler ve kurallar olduğunda",
        "description": "Only if new CDNs and rules"
    },
    "updateNotificationAlways": {
        "message": "Her zaman",
        "description": "Always"
    },
    "websiteBroken": {
        "message": "Web sitesi bozuk mu?",
        "description": "Website broken?"
    },
    "hideDonationButton": {
        "message": "Bağış düğmesini gizle",
        "description": "Hide donation button"
    },
    "betaLabel": {
        "message": "Beta",
        "description": "beta"
    },
    "changeBadgeColorMissingResourcesTitle": {
        "message": "Simgede eksik kaynakları belirt",
        "description": "Indicate missing resources on the icon"
    },
    "changeBadgeColorMissingResourcesDescription": {
        "message": "Kaynaklar eksikse rozet rengini değiştir.",
        "description": "Change the badge color if resources are missing."
    }
}
