{
    "extensionDescription": {
        "message": "Le protege contra el rastreo de CDN (Redes de entrega de contenido) mediante la redirección a recursos locales.",
        "description": "Protects you against tracking through CDNs (Content Delivery Networks) by redirecting to local resources."
    },
    "amountInjectedDescription": {
        "message": "Número de recursos inyectados de Redes de Entrega de Contenido desde la instalación.",
        "description": "Amount injected description."
    },
    "optionsTitle": {
        "message": "Opciones",
        "description": "Options title"
    },
    "showIconBadgeTitle": {
        "message": "Mostrar el número de inyecciones en el icono",
        "description": "Show icon badge title"
    },
    "showIconBadgeDescription": {
        "message": "Muestra el número de recursos inyectados en el icono de la extensión.",
        "description": "Show icon badge description."
    },
    "blockMissingTitle": {
        "message": "Bloquear las peticiones de recursos que faltan",
        "description": "Block requests for missing resources title"
    },
    "blockMissingDescription": {
        "message": "Cancela las peticiones interceptadas cuando el recurso requerido no se encuentra localmente.",
        "description": "Block requests for missing resources description."
    },
    "disablePrefetchTitle": {
        "message": "Deshabilitar la precarga de enlaces",
        "description": "Disable prefetch title"
    },
    "disablePrefetchDescription": {
        "message": "Evita que las peticiones no permitidas se escapen hacia redes de distribución.",
        "description": "Disable prefetch description."
    },
    "stripMetadataTitle": {
        "message": "Quitar los metadatos de las solicitudes permitidas",
        "description": "Strip metadata title"
    },
    "stripMetadataDescription": {
        "message": "Borra los datos sensibles de las solicitudes a las CDN permitidas para mejorar la privacidad.",
        "description": "Strip metadata description."
    },
    "allowlistedDomainsTitle": {
        "message": "Desactivar LocalCDN en estos dominios:",
        "description": "Deactivate LocalCDN for these domains:"
    },
    "allowlistedDomainsDescription": {
        "message": "Escriba los dominios donde deshabilitar LocalCDN. Uno por línea.",
        "description": "Enter domains to disable LocalCDN there. One entry per line."
    },
    "advancedLabel": {
        "message": "Avanzado",
        "description": "Advanced label"
    },
    "generateRuleSetTitle": {
        "message": "Generar el conjunto de reglas para su bloqueador de publicidad",
        "description": "Generate rule sets for your adblocker"
    },
    "generateRuleSetDescription": {
        "message": "Si está usando un bloqueador de publicidad, puede generar las reglas aquí. Tiene que añadir las reglas manualmente a su bloqueador de publicidad.",
        "description": "In case you are using an adblocker you can generate the rules here. You have to add these rules manually in your adblocker."
    },
    "lastUpdate": {
        "message": "Última actualización:",
        "description": "Last update:"
    },
    "copyRuleSet": {
        "message": "Copiar",
        "description": "Text of button to copy ruleset"
    },
    "loggingTitle": {
        "message": "Habilitar el registro",
        "description": "Enable logging"
    },
    "loggingDescription": {
        "message": "Puede abrir el registro con el icono en el menú. El registro se eliminará cuando cierre el navegador o deshabilite el registro.",
        "description": "You can open the log with the icon in the menu. The log will be deleted when you close the browser or disable logging."
    },
    "featureBreaksWebsitesDescription": {
        "message": "Esta característica rompe sitios web. No la deje habilitada, a menos que esté dispuesto a añadir manualmente los dominios afectados a la lista de permitidos .",
        "description": "This feature breaks websites. Do not leave it enabled, unless you are prepared to manually add affected domains to the allow list."
    },
    "featureBreaksWebsitesButton": {
        "message": "Desactivar",
        "description": "Disable"
    },
    "labelManipulateDOM": {
        "message": "Filtrar el código fuente HTML",
        "description": "Filter HTML source code"
    },
    "labelDonate": {
        "message": "Donar",
        "description": "Donate"
    },
    "negateHtmlFilterListTitle": {
        "message": "Invertir el filtro HTML",
        "description": "Invert HTML filter"
    },
    "negateHtmlFilterListDescription": {
        "message": "Habilite esta opción para aplicar siempre el filtro HTML. Los dominios en la lista serán ignorados. Si esta opción está desactivada, el filtro HTML solo se aplica a los dominios de la lista.",
        "description": "Enable this option to always apply the HTML filter. The domains in the list will be ignored then. If this option is disabled, the HTML filter is only applied to domains in the list."
    },
    "negateHtmlFilterListWarning": {
        "message": "Esta función puede romper sitios web. Por favor, tenga en cuenta la información en las páginas de la Wiki.",
        "description": "This function can break websites. Please note the information on the Wiki page."
    },
    "htmlFilterDomainsTitleExclude": {
        "message": "No aplicar el filtro HTML a estos dominios:",
        "description": "Do not apply HTML filter to these domains:"
    },
    "htmlFilterDomainsDescription": {
        "message": "Escriba los dominios que han sido usados o ignorados por el filtro HTML. Uno por línea.",
        "description": "Enter the domains to be handled or ignored by the HTML filter. One entry per line."
    },
    "htmlFilterDomainsTitleInclude": {
        "message": "Aplicar el filtro HTML en estos dominios:",
        "description": "Apply HTML filter for these domains:"
    },
    "blockGoogleFontsTitle": {
        "message": "Bloquear las fuentes de Google",
        "description": "Block Google Fonts"
    },
    "blockGoogleFontsDescription": {
        "message": "Si se permiten peticiones de recursos que faltan, las conexiones a «fonts.googleapis.com» no se bloquean. Habilite esta opción para bloquear estas solicitudes.",
        "description": "If requests for missing resources are allowed, connections to \"fonts.googleapis.com\" are not blocked. Enable this option to block these requests."
    },
    "chooseIconStyle": {
        "message": "Eligir un ícono para esta extensión",
        "description": "Choose an icon for this extension"
    },
    "internalStatisticsTitle": {
        "message": "Estadísticas internas",
        "description": "Internal statistics"
    },
    "internalStatisticsDescription": {
        "message": "Esta función se encuentra actualmente en fase experimental. No hay transmisión de datos. Todo se hace en su dispositivo.",
        "description": "No data transmission. It’s all local on your device."
    },
    "headerStatistics": {
        "message": "Estadísticas",
        "description": "Statistics. The header of a statistics page."
    },
    "labelToday": {
        "message": "Hoy",
        "description": "Statistics view for today."
    },
    "labelPastWeek": {
        "message": "Última semana",
        "description": "Statistics view for past week."
    },
    "labelPastMonth": {
        "message": "Último mes",
        "description": "Statistics view for past month."
    },
    "labelPastYear": {
        "message": "Último año",
        "description": "Statistics view for past year."
    },
    "labelDelete": {
        "message": "Eliminar",
        "description": "Button to delete all statistics data."
    },
    "labelAvg": {
        "message": "Promedio (Reemplazos por día)",
        "description": "Followed by a number of average injections per day within a specific period."
    },
    "labelInjectedFrameworks": {
        "message": "«Frameworks» reemplazados",
        "description": "Followed by a number of injections within a specific period."
    },
    "dialogConfirmDeleteStatistics": {
        "message": "¿Está seguro de querer borrar todas las estadísticas?",
        "description": "Are you sure you want to delete all the statistics?"
    },
    "labelDomainsAllowlistGoogleFonts": {
        "message": "Estos dominios tienen permitido cargar fuentes de Google. Uno por línea.",
        "description": "These domains are allowed to load Google Fonts. One entry per line."
    },
    "btnGeneral": {
        "message": "Básico",
        "description": "Basic"
    },
    "btnAdvanced": {
        "message": "Avanzado",
        "description": "Advanced"
    },
    "btnOther": {
        "message": "Otro",
        "description": "Other"
    },
    "btnInfo": {
        "message": "Información",
        "description": "Info"
    },
    "headerStorageType": {
        "message": "Tipo de almacenamiento",
        "description": "Storage type"
    },
    "labelStorageTypeLocal": {
        "message": "Local",
        "description": "Local"
    },
    "labelStorageTypeSync": {
        "message": "Sincronizar",
        "description": "Sync"
    },
    "headerImportExport": {
        "message": "Importar/Exportar",
        "description": "Import/Export"
    },
    "labelExportData": {
        "message": "Respaldar en archivo",
        "description": "Back up to file"
    },
    "labelImportData": {
        "message": "Restaurar desde un archivo",
        "description": "Restore from file"
    },
    "dialogImportSuccessful": {
        "message": "Importación exitosa",
        "description": "Import successful"
    },
    "dialogImportFailed": {
        "message": "Importación fallida",
        "description": "Import failed"
    },
    "updateNotificationTitle": {
        "message": "Notificar después de una actualización",
        "description": "Notification after an update"
    },
    "updateNotificationNever": {
        "message": "Nunca (Actualización silenciosa)",
        "description": "Never (Silent Updates)"
    },
    "updateNotificationOnlyRules": {
        "message": "Solo con nuevas CDN y reglas",
        "description": "Only if new CDNs and rules"
    },
    "updateNotificationAlways": {
        "message": "Siempre",
        "description": "Always"
    },
    "websiteBroken": {
        "message": "¿El sitio web está roto?",
        "description": "Website broken?"
    },
    "hideDonationButton": {
        "message": "Ocultar el botón de donación",
        "description": "Hide donation button"
    },
    "betaLabel": {
        "message": "Beta",
        "description": "beta"
    },
    "changeBadgeColorMissingResourcesTitle": {
        "message": "Indica los recursos que faltan en el icono",
        "description": "Indicate missing resources on the icon"
    },
    "changeBadgeColorMissingResourcesDescription": {
        "message": "Cambia el color de la insignia si faltan recursos.",
        "description": "Change the badge color if resources are missing."
    }
}
